9/15/18 11:35:01 PM 	 ================================================================================
                       	 OptimalAssignments.jar: 9/15/18 12:07 AM size:13688496
                       	 	MD5 check sum 62209e85f2f00d46a3127fb57633027d
                       	 Java 1.8.0_181
                       	 Log file: C:\xampp\htdocs\projects\nexin\nexin_apis_pg\public\allocation\AssignmentManager.log
9/15/18 11:35:01 PM 	 NexinSQL
9/15/18 11:35:01 PM 	 connection=jdbc:postgresql://localhost:5432/postgres?currentSchema=staff_allocation_schema&user=postgres&password=admin123
9/15/18 11:35:01 PM 	 day=3
9/15/18 11:35:01 PM 	 week=36
9/15/18 11:35:02 PM 	 Connected to database PostgreSQL: jdbc:postgresql://localhost:5432/postgres?currentSchema=staff_allocation_schema&user=postgres&... via PostgreSQL JDBC Driver.  Autocommit
9/15/18 11:35:03 PM 	 No intervals!  :{"end_date":"2017-11-30","starting_week":"1","cycle_length":"1","start_date":"2017-09-01"}
9/15/18 11:35:03 PM 	 No intervals!  :{"end_date":"2018-08-31","starting_week":"1","cycle_length":"1","start_date":"2017-09-06"}
9/15/18 11:35:03 PM 	 Running week=36 day=3
9/15/18 11:35:03 PM 	 Assignment Task id=5, session id=11, session sqn.no=2
9/15/18 11:35:03 PM 	 SERVICES:
	1:weekday ward	1 1 01:00 - 09:00	1 2 07:00 - 19:00	1 3 07:00 - 19:00	1 4 07:00 - 19:00	1 5 05:00 - 19:00	2 1 07:00 - 19:00	2 2 06:00 - 19:00	2 3 05:00 - 19:00	2 4 04:00 - 19:00	2 5 04:00 - 19:00
		1:(role = 1)
		1:(grade >= 2)
		2:(role = 1)
		2:(grade >= 2)
		3:(role = 1)
		3:(grade >= 2)
		4:(role = 1)
		4:(grade >= 2)
		5:(role = 1)
		5:(grade >= 2)
	2:weekday evening	1 1 18:00 - 21:00	1 2 18:00 - 21:00	1 3 18:00 - 21:00	1 4 18:00 - 21:00	1 5 18:00 - 21:00	2 2 18:00 - 21:00	2 5 18:00 - 21:00	3 2 18:00 - 21:00	3 3 18:00 - 21:00	3 5 18:00 - 21:30	3 0 05:00 - 14:00
		1:(grade >= 11)
		2:(role >= 3)
	3:weekday nights	1 1 21:00 - 08:00	1 2 21:00 - 08:00	1 3 21:00 - 08:00	1 4 21:00 - 08:00	1 5 21:00 - 08:00
	4:weekend day
	5:weekend nights	1 6 20:00 - 08:00	1 0 20:00 - 08:00	1 2 15:00 - 09:00
	6:test new service	1 1 08:00 - 12:00	1 4 13:00 - 17:00
	7:clinic 1
	8:weekday Upper GI ward	1 1 08:00 - 18:00	1 2 08:00 - 18:00	1 3 08:00 - 18:00	1 4 08:00 - 18:00	1 5 08:00 - 18:00	1 0 02:00 - 20:00
	9:weekday upper GI evening	1 1 18:00 - 21:00	1 2 18:00 - 21:00	1 3 18:00 - 21:00	1 4 18:00 - 21:00	1 5 18:00 - 21:00
	10:weekday upper GI nights	1 1 21:00 - 08:00	1 2 21:00 - 08:00	1 3 21:00 - 08:00	1 4 21:00 - 08:00	1 5 21:00 - 08:00
	11:weekend upper GI day
	12:weekend upper GI nights	1 6 20:00 - 08:00	1 0 20:00 - 08:00
	13:new test service 1
	16:Week Day Ward	1 1 01:00 - 09:00	1 2 02:00 - 10:00	1 3 03:00 - 11:00	1 4 04:00 - 12:00	1 5 05:00 - 19:00	2 1 07:00 - 19:00	2 2 06:00 - 14:00	2 3 05:00 - 13:00	2 4 04:00 - 12:00	2 5 03:00 - 11:00
	17:Dingers	1 2 04:00 - 16:00
	18:Dummy Record
	19:weekday ward	1 1 01:00 - 09:00	1 2 07:00 - 19:00	1 3 07:00 - 19:00	1 4 07:00 - 19:00	1 5 05:00 - 19:00
	20:weekday evening
9/15/18 11:35:03 PM 	 STAFF:
	1:Dr Frank db.id=1 index=0
		grade : (id:2 pos:1 FY111)
		role : (id:1 pos:2 JD)
	2:Dr Echo db.id=2 index=1
		grade : (id:6 pos:7 ST3)
		role : (id:4 pos:4 Registrar)
	3:Dr Golf db.id=3 index=2
		grade : (id:8 pos:9 ST5)
		role : (id:7 pos:5 Senior Registrar)
	4:Dr Alpha db.id=4 index=3
		grade : (id:2 pos:1 FY111)
		role : (id:2 pos:1 House Officer)
	6:teting 123 db.id=6 index=4
		grade : (id:2 pos:1 FY111)
		role : (id:2 pos:1 House Officer)
9/15/18 11:35:03 PM 	 Transition times:
	TT1: AM
	TT2: PM
	TT3: Evening
	TT4: Night
9/15/18 11:35:03 PM 	 Assignability
		(Ass.id=0)
	weekday ward:[]; weekday evening:[]; weekday nights:[]; weekend day:[]; weekend nights:[]; test new service:[]; clinic 1:[]; weekday Upper GI ward:[]; weekday upper GI evening:[]; weekday upper GI nights:[]; weekend upper GI day:[]; weekend upper GI nights:[]; new test service 1:[]; Week Day Ward:[]; Dingers:[]; Dummy Record:[]; weekday ward:[]; weekday evening:[]
9/15/18 11:35:03 PM 	 PARAMETERS:
	GRADE
		2 : (id:2 pos:1 FY111)
		3 : (id:3 pos:2 FY2)
		4 : (id:4 pos:5 CT1)
		5 : (id:5 pos:6 CT2)
		6 : (id:6 pos:7 ST3)
		7 : (id:7 pos:8 ST4)
		8 : (id:8 pos:9 ST5)
		9 : (id:9 pos:10 CCT)
		11 : (id:11 pos:3 FY3)
		12 : (id:12 pos:4 FY4)
	ROLE
		1 : (id:1 pos:2 JD)
		2 : (id:2 pos:1 House Officer)
		3 : (id:3 pos:3 SHO)
		4 : (id:4 pos:4 Registrar)
		5 : (id:5 pos:6 Consultant)
		6 : (id:6 pos:7 developer)
		7 : (id:7 pos:5 Senior Registrar)
		8 : (id:8 pos:8 tseting)
		9 : (id:9 pos:9 new rolw)
		11 : (id:11 pos:10 Roling 4)
9/15/18 11:35:03 PM 	 Dynamic programming for event sequence starting from TT1: AM
9/15/18 11:35:03 PM 	 Optimization is accomplished in 0 seconds
9/15/18 11:35:03 PM 	 Solution
	TT1: AM
		(Ass.id=3)
	weekday ward:[Dr Frank]; weekday evening:[Dr Echo]; weekday nights:[]; weekend day:[]; weekend nights:[]; test new service:[]; clinic 1:[]; weekday Upper GI ward:[]; weekday upper GI evening:[]; weekday upper GI nights:[]; weekend upper GI day:[]; weekend upper GI nights:[]; new test service 1:[]; Week Day Ward:[]; Dingers:[]; Dummy Record:[]; weekday ward:[]; weekday evening:[]
		Bellman loss (a distance from the max possible score): 2332800000
		Doctor transfers: 0
		Max fulfilled level: 0 from 5
		Missing resources by level :
			1 :  		grade >= 11 :  1
	TT3: Evening
		(Ass.id=5)
	weekday ward:[Dr Frank]; weekday evening:[Dr Echo]; weekday nights:[]; weekend day:[]; weekend nights:[]; test new service:[]; clinic 1:[]; weekday Upper GI ward:[]; weekday upper GI evening:[]; weekday upper GI nights:[]; weekend upper GI day:[]; weekend upper GI nights:[]; new test service 1:[]; Week Day Ward:[]; Dingers:[]; Dummy Record:[]; weekday ward:[]; weekday evening:[]
		Bellman loss (a distance from the max possible score): 1555200000
		Doctor transfers: 0
		Max fulfilled level: 0 from 5
		Missing resources by level :
			1 :  		grade >= 11 :  1
	TT4: Night
		(Ass.id=7)
	weekday ward:[]; weekday evening:[Dr Echo]; weekday nights:[]; weekend day:[]; weekend nights:[]; test new service:[]; clinic 1:[]; weekday Upper GI ward:[]; weekday upper GI evening:[]; weekday upper GI nights:[]; weekend upper GI day:[]; weekend upper GI nights:[]; new test service 1:[]; Week Day Ward:[]; Dingers:[]; Dummy Record:[]; weekday ward:[]; weekday evening:[]
		Bellman loss (a distance from the max possible score): 777600000
		Doctor transfers: 0
		Max fulfilled level: 0 from 5
		Missing resources by level :
			1 :  		grade >= 11 :  1
9/27/18 11:56:22 PM 	 ================================================================================
                       	 OptimalAssignments.jar: 9/15/18 12:07 AM size:13688496
                       	 	MD5 check sum 62209e85f2f00d46a3127fb57633027d
                       	 Java 1.8.0_181
                       	 Log file: C:\xampp\htdocs\projects\nexin\nexin_apis_pg\public\allocation\AssignmentManager.log
9/27/18 11:56:22 PM 	 NexinSQL
9/27/18 11:56:22 PM 	 39
9/27/18 11:56:22 PM 	 4
9/27/18 11:56:22 PM 	 connection=jdbc:postgresql://localhost:5432/postgres?currentSchema=staff_allocation_schema&user=postgres&password=admin123
9/27/18 11:56:30 PM 	 Connected to database PostgreSQL: jdbc:postgresql://localhost:5432/postgres?currentSchema=staff_allocation_schema&user=postgres&... via PostgreSQL JDBC Driver.  Autocommit
9/27/18 11:56:35 PM 	 No intervals!  :{"end_date":"2017-11-30","starting_week":"1","cycle_length":"1","start_date":"2017-09-01"}
9/27/18 11:56:35 PM 	 No intervals!  :{"end_date":"2018-08-31","starting_week":"1","cycle_length":"1","start_date":"2017-09-06"}
