[{
	"id": 1,
	"directorate_id": 1,
	"directorate_speciality_id": 2,
	"grade_id": 2,
	"role_id": 1,
	"name": "Dr Frank",
	"gmc": "123651683",
	"qualifications": null,
	"individual_bleep": "1313^1",
	"email": "frank@doctors.uk",
	"mobile": "12321613156^1",
	"profile_pic": "",
	"appointed_from": "2017-10-14",
	"appointed_till": "2018-02-23",
	"created_at": "2017-10-14 11:34:37",
	"updated_at": "2017-10-16 20:13:44",
	"deleted_at": null,
	"grade": {
		"id": 2,
		"directorate_id": 1,
		"role_id": 2,
		"name": "FY1",
		"position": 1,
		"created_at": "2017-09-07 17:08:49",
		"updated_at": "2017-09-07 17:08:49",
		"deleted_at": null
	},
	"role": {
		"id": 1,
		"directorate_id": 1,
		"name": "JD",
		"position": 2,
		"created_at": "2017-09-07 17:03:15",
		"updated_at": "2017-10-17 11:47:46",
		"deleted_at": null
	},
	"assign": null,
	"additional_parameters": "",
	"end_time": "17:00",
	"start_time": "08:00"
},
{
	"id": 2,
	"directorate_id": 1,
	"directorate_speciality_id": 1,
	"grade_id": 6,
	"role_id": 4,
	"name": "Dr Echo",
	"gmc": "1111111110",
	"qualifications": null,
	"individual_bleep": "1313^0",
	"email": "",
	"mobile": "12321613156^1",
	"profile_pic": "default.png",
	"appointed_from": "2017-10-01",
	"appointed_till": "2018-07-31",
	"created_at": "2017-10-20 15:04:44",
	"updated_at": "2017-10-20 15:04:44",
	"deleted_at": null,
	"grade": {
		"id": 6,
		"directorate_id": 1,
		"role_id": 4,
		"name": "ST3",
		"position": 7,
		"created_at": "2017-09-07 17:12:05",
		"updated_at": "2017-10-22 17:13:50",
		"deleted_at": null
	},
	"role": {
		"id": 4,
		"directorate_id": 1,
		"name": "Registrar",
		"position": 4,
		"created_at": "2017-09-07 17:07:01",
		"updated_at": "2017-09-07 17:18:08",
		"deleted_at": null
	},
	"assign": null,
	"additional_parameters": "",
	"end_time": "17:00",
	"start_time": "08:00"
}]